R 数据科学笔记：1 - R | Zhou Xiaozhao = 小钊の笔记 = 前天是小兔子，昨天是小鹿，今天是你
…
install.packages("tidyverse")

library(tidyverse)

# 1.2 第一步
我们使用第一张图来回答问题：大引擎汽车比小引擎汽车更耗油吗？你可能已经有了答案，但应该努力让答案更精确一些。引擎大小与燃油效率之间是什么关系？是正相关，还是负相关？是线性关系，还是非线性关系？
# 1.2.1 mpg 数据框
你可以使用 ggplot2 包中的 mpg 数据框（即 ggplot2::mpg）来检验自己的答案。数据框是变量（列）和观测（行）的矩形集合。mpg 包含了由美国环境保护协会收集的 38 种车型的观测数据。

> mpg

# A tibble: 234 x 11

   manufacturer model displ  year   cyl trans drv     cty   hwy fl   

   <chr>        <chr> <dbl> <int> <int> <chr> <chr> <int> <int> <chr>

 1 audi         a4      1.8  1999     4 auto~ f        18    29 p    

 2 audi         a4      1.8  1999     4 manu~ f        21    29 p    

 3 audi         a4      2    2008     4 manu~ f        20    31 p    

 4 audi         a4      2    2008     4 auto~ f        21    30 p    

 5 audi         a4      2.8  1999     6 auto~ f        16    26 p    

 6 audi         a4      2.8  1999     6 manu~ f        18    26 p    

 7 audi         a4      3.1  2008     6 auto~ f        18    27 p    

 8 audi         a4 q~   1.8  1999     4 manu~ 4        18    26 p    

 9 audi         a4 q~   1.8  1999     4 auto~ 4        16    25 p    

10 audi         a4 q~   2    2008     4 manu~ 4        20    28 p    

# ... with 224 more rows, and 1 more variable: class <chr>
…
