R 数据科学笔记：3 - R | Zhou Xiaozhao = 小钊の笔记 = 前天是小兔子，昨天是小鹿，今天是你
…
图中每个圆点的大小表示每个变量组合中的观测数量。相关变动就表示为特定 x 轴变量值与特定 y 轴变量值之间的强相关关系。
计算变量组合中的观测数量的另一种方法是使用 dplyr：

> diamonds %>%

+   count(color, cut)

# A tibble: 35 x 3

   color cut           n

   <ord> <ord>     <int>

 1 D     Fair        163

 2 D     Good        662

 3 D     Very Good  1513

 4 D     Premium    1603

 5 D     Ideal      2834

 6 E     Fair        224

 7 E     Good        933

 8 E     Very Good  2400

 9 E     Premium    2337

10 E     Ideal      3903

# ... with 25 more rows
…
